{
    "key": "group_5a70ecfb30dee",
    "title": "Personal Injury - Sub Pages",
    "fields": [
        {
            "key": "field_5c8ab13a3c821",
            "label": "Excerpt",
            "name": "",
            "type": "tab",
            "instructions": "",
            "required": 0,
            "conditional_logic": 0,
            "wrapper": {
                "width": "",
                "class": "",
                "id": ""
            },
            "placement": "top",
            "endpoint": 0
        },
        {
            "key": "field_5a2986278db6b",
            "label": "Excerpt",
            "name": "excerpt",
            "type": "textarea",
            "instructions": "",
            "required": 0,
            "conditional_logic": 0,
            "wrapper": {
                "width": "",
                "class": "",
                "id": ""
            },
            "default_value": "",
            "placeholder": "",
            "maxlength": "",
            "rows": "",
            "new_lines": "br"
        }
    ],
    "location": [
        [
            {
                "param": "page_parent",
                "operator": "==",
                "value": "17"
            }
        ],
        [
            {
                "param": "page_parent",
                "operator": "==",
                "value": "31"
            }
        ]
    ],
    "menu_order": 0,
    "position": "normal",
    "style": "seamless",
    "label_placement": "top",
    "instruction_placement": "label",
    "hide_on_screen": "",
    "active": 1,
    "description": "",
    "modified": 1554414352
}